<?xml version="1.0" standalone="no"?>
<!DOCTYPE svg PUBLIC "-//W3C//DTD SVG 1.1//EN" "http://www.w3.org/Graphics/SVG/1.1/DTD/svg11.dtd">
<svg xmlns="http://www.w3.org/2000/svg">
<metadata>Copyright (C) 2019 by original authors @ fontello.com</metadata>
<defs>
<font id="fontello" horiz-adv-x="1000" >
<font-face font-family="fontello" font-weight="400" font-stretch="normal" units-per-em="1000" ascent="850" descent="-150" />
<missing-glyph horiz-adv-x="1000" />
<glyph glyph-name="home" unicode="&#xe800;" d="M786 296v-267q0-15-11-25t-25-11h-214v214h-143v-214h-214q-15 0-25 11t-11 25v267q0 1 0 2t0 2l321 264 321-264q1-1 1-4z m124 39l-34-41q-5-5-12-6h-2q-7 0-12 3l-386 322-386-322q-7-4-13-3-7 1-12 6l-35 41q-4 6-3 13t6 12l401 334q18 15 42 15t43-15l136-113v108q0 8 5 13t13 5h107q8 0 13-5t5-13v-227l122-102q6-4 6-12t-4-13z" horiz-adv-x="928.6" />

<glyph glyph-name="eye" unicode="&#xe801;" d="M488 695c291 0 487-340 487-340s-196-339-487-339-488 339-488 339 196 340 488 340z m0-579c131 0 238 108 238 239s-107 239-238 239-239-108-239-239 107-239 239-239z m107 239c0-59-50-106-107-106-59 0-107 47-107 106 0 57 48 107 107 107 57 0 107-50 107-107z" horiz-adv-x="975" />

<glyph glyph-name="left-open" unicode="&#xe802;" d="M654 682l-297-296 297-297q10-10 10-25t-10-25l-93-93q-11-10-25-10t-25 10l-414 415q-11 10-11 25t11 25l414 414q10 11 25 11t25-11l93-93q10-10 10-25t-10-25z" horiz-adv-x="714.3" />

<glyph glyph-name="right-open" unicode="&#xe803;" d="M618 361l-414-415q-11-10-25-10t-25 10l-93 93q-11 11-11 25t11 25l296 297-296 296q-11 11-11 25t11 25l93 93q10 11 25 11t25-11l414-414q10-11 10-25t-10-25z" horiz-adv-x="714.3" />

<glyph glyph-name="right-dir" unicode="&#xe804;" d="M0 580l400-230-400-230 0 460z" horiz-adv-x="400" />

<glyph glyph-name="mail" unicode="&#xe805;" d="M929 11v428q-18-20-39-36-149-115-238-189-28-24-46-37t-48-28-57-13h-2q-26 0-57 13t-48 28-46 37q-88 74-238 189-21 16-39 36v-428q0-7 6-13t12-5h822q7 0 12 5t6 13z m0 586v14t-1 7-1 7-3 5-5 4-8 2h-822q-7 0-12-6t-6-12q0-94 83-159 107-84 223-176 4-3 20-17t25-21 25-17 28-16 24-5h2q11 0 24 5t28 16 25 17 25 21 20 17q116 92 224 176 30 24 56 65t26 73z m71 21v-607q0-37-26-63t-63-27h-822q-36 0-63 27t-26 63v607q0 37 26 63t63 26h822q37 0 63-26t26-63z" horiz-adv-x="1000" />

<glyph glyph-name="menu" unicode="&#xe806;" d="M650 400q22 0 36-15t14-35-15-35-35-15l-600 0q-20 0-35 15t-15 35 14 35 36 15l600 0z m-600 100q-20 0-35 15t-15 35 14 35 36 15l600 0q22 0 36-15t14-35-15-35-35-15l-600 0z m600-300q22 0 36-15t14-35-15-35-35-15l-600 0q-20 0-35 15t-15 35 14 35 36 15l600 0z" horiz-adv-x="700" />

<glyph glyph-name="twitter" unicode="&#xf099;" d="M904 622q-37-54-90-93 0-8 0-23 0-73-21-145t-64-139-103-117-144-82-181-30q-151 0-276 81 19-2 43-2 126 0 224 77-59 1-105 36t-64 89q19-3 34-3 24 0 48 6-63 13-104 62t-41 115v2q38-21 82-23-37 25-59 64t-22 86q0 49 25 91 68-83 164-133t208-55q-5 21-5 41 0 75 53 127t127 53q79 0 132-57 61 12 115 44-21-64-80-100 52 6 104 28z" horiz-adv-x="928.6" />

<glyph glyph-name="gplus-squared" unicode="&#xf0d4;" d="M512 345q0 15-4 36h-202v-74h122q-2-13-10-28t-21-29-37-25-54-10q-55 0-94 40t-39 95 39 95 94 40q52 0 86-33l58 57q-60 55-144 55-89 0-151-62t-63-152 63-151 151-63q92 0 149 58t57 151z m192-26h61v62h-61v61h-61v-61h-61v-62h61v-61h61v61z m153 299v-536q0-66-47-113t-114-48h-535q-67 0-114 48t-47 113v536q0 66 47 113t114 48h535q67 0 114-48t47-113z" horiz-adv-x="857.1" />

<glyph glyph-name="stackoverflow" unicode="&#xf16c;" d="M719-61h-624v268h-89v-357h803v357h-90v-268z m-525 293l18 87 437-92-18-87z m57 208l38 82 404-189-37-81z m112 199l57 69 343-287-57-68z m222 211l266-358-71-53-267 357z m-401-821v89h447v-89h-447z" horiz-adv-x="857.1" />

<glyph glyph-name="skype" unicode="&#xf17e;" d="M655 257q0 28-11 51t-27 38-41 27-46 19-49 13l-58 14q-17 4-25 6t-19 6-17 9-9 12-4 16q0 43 80 43 24 0 43-6t30-16 21-19 23-16 27-7q26 0 42 18t16 43q0 31-32 55t-79 38-101 13q-38 0-74-9t-67-26-49-48-19-72q0-34 10-60t32-42 44-27 58-18l81-20q51-12 63-20 18-11 18-34 0-21-23-36t-58-14q-29 0-51 9t-37 22-25 25-26 21-30 9q-28 0-42-17t-14-41q0-52 68-88t162-37q41 0 78 10t69 30 49 52 19 74z m202-121q0-89-63-152t-151-63q-73 0-131 45-43-9-83-9-80 0-153 31t-126 84-83 125-31 153q0 41 9 84-45 58-45 130 0 89 63 152t151 63q73 0 131-45 43 9 84 9 79 0 152-31t126-84 84-125 30-153q0-41-8-84 44-58 44-130z" horiz-adv-x="857.1" />

<glyph glyph-name="stumbleupon" unicode="&#xf1a4;" d="M593 453v66q0 23-17 40t-40 16-40-16-17-40v-342q0-98-70-167t-170-69q-99 0-169 70t-70 169v149h183v-146q0-24 17-41t40-16 40 16 17 41v346q0 95 71 163t168 67q98 0 168-68t71-164v-76l-109-32z m295-124h183v-149q0-99-70-169t-169-70q-99 0-169 69t-70 168v150l73-34 109 32v-151q0-23 16-40t41-16 40 16 16 40v154z" horiz-adv-x="1071.4" />

<glyph glyph-name="soundcloud" unicode="&#xf1be;" d="M438 84l8 135-8 292q-1 5-5 9t-9 4q-5 0-9-4t-4-9l-7-292 7-135q1-5 5-9t8-3q12 0 14 12z m165 17l6 117-7 327q0 9-7 14-5 3-9 3t-9-3q-7-5-7-14l-1-3-5-323q0-1 6-132v0q0-6 3-10 5-6 13-6 6 0 11 5 5 4 5 11z m-583 189l11-71-11-70q-2-5-5-5t-5 5l-10 70 10 71q1 5 5 5t5-5z m48 44l14-115-14-113q-2-5-6-5-5 0-5 5l-13 113 13 115q0 5 5 5 4 0 6-5z m156-252z m-105 274l14-137-14-132q0-6-6-6-6 0-7 6l-12 132 12 137q1 6 7 6 6 0 6-6z m52 4l13-141-13-136q-1-8-7-8-8 0-8 8l-11 136 11 141q0 7 8 7 6 0 7-7z m53-11l12-130-12-137q-1-9-9-9-3 0-6 2t-2 7l-12 137 12 130q0 4 2 6t6 3q8 0 9-9z m214-265z m-162 347l12-212-12-137q0-4-3-7t-6-3q-9 0-10 10l-10 137 10 212q1 10 10 10 4 0 6-3t3-7z m53 48l10-261-10-136q0-5-3-8t-8-3q-10 0-11 11l-9 136 9 261q1 11 11 11 5 0 8-4t3-7z m54 22l10-282-10-135q-1-12-12-12-10 0-12 12l-9 135 9 282q0 5 4 9t8 4q5 0 9-4t3-9z m219-414z m-110 417l8-285-8-133q0-6-5-10t-9-4-10 3-4 11l-8 133 8 285q0 6 4 10t10 3 9-3 5-10z m55-11l8-275-8-131q0-6-5-11t-10-4-11 4-5 11l-6 131 6 275q1 7 5 11t11 5 10-5 5-11z m118-275l-8-129q0-7-5-12t-12-5-12 5-6 12l-3 64-3 65 6 355v2q1 8 7 13 5 4 11 4 5 0 8-3 8-4 9-14z m621 11q0-65-47-111t-111-46h-439q-7 1-12 6t-5 12v502q0 13 16 18 47 19 101 19 108 0 188-73t89-181q30 12 62 12 65 0 111-46t47-112z" horiz-adv-x="1285.7" />

<glyph glyph-name="facebook" unicode="&#xf30c;" d="M500 644l-142 0q-14 0-25-15t-11-37l0-102 178 0 0-148-178 0 0-442-170 0 0 442-152 0 0 148 152 0 0 86q0 94 59 159t147 65l142 0 0-156z" horiz-adv-x="500" />

<glyph glyph-name="facebook-squared" unicode="&#xf30e;" d="M752 770q44 0 76-31t32-75l0-646q0-44-32-76t-76-32l-162 0 0 310 114 0 0 134-114 0 0 70q0 30 28 30l86 0 0 152-96 0q-74 0-124-54t-50-132l0-66-104 0 0-134 104 0 0-310-326 0q-44 0-76 32t-32 76l0 646q0 44 32 75t76 31l644 0z" horiz-adv-x="860" />
</font>
</defs>
</svg>